#include <iostream>
#include <conio.h>
using namespace std;

typedef int item;
struct List 
{
	item key;
	List *next;
};
List* input ()
{
	List *end = nullptr;
	List* begin = nullptr;
	item a;
	if (cin >> a && a!=0)
	{
		end = new List;
		end->key = a;
		end->next = nullptr;
		begin = end;
	}
	else return begin;
	while (cin >> a && a!=0)
	{
		end->next = new List;
		end = end->next;
		end->key = a;
		end->next = nullptr;
	}
	return begin;
}